<?xml version="1.0" encoding="UTF-8" standalone="no"?>
<svg width="189px" height="170px" viewBox="0 0 189 170" version="1.1" xmlns="http://www.w3.org/2000/svg" xmlns:xlink="http://www.w3.org/1999/xlink" xmlns:sketch="http://www.bohemiancoding.com/sketch/ns">
    <!-- Generator: Sketch 3.5.2 (25235) - http://www.bohemiancoding.com/sketch -->
    <title>illustration-release-with-confidence</title>
    <desc>Created with Sketch.</desc>
    <defs></defs>
    <g id="Flow-2-JIRA-adds-Bitbucket" stroke="none" stroke-width="1" fill="none" fill-rule="evenodd" sketch:type="MSPage">
        <g id="Easy-Connect-2.6.1----Bitbucket-linked-but-no-repos-added-Copy-9" sketch:type="MSArtboardGroup" transform="translate(-548.000000, -196.000000)">
            <g id="overlay" sketch:type="MSLayerGroup" transform="translate(-1.000000, -70.000000)">
                <g id="Modal-600px-–-footer-Copy-+-Footer-Copy-+-Primary-+-Oval-49-Copy-+-Oval-49-Copy-2-+-Oval-49-Copy-3-Copy" transform="translate(341.000000, 205.000000)" sketch:type="MSShapeGroup">
                    <g id="Modal-600px-–-footer-Copy">
                        <g id="Release-with-confide-+-Get-warnings-leading-+-Imported-Layers-Copy-2" transform="translate(29.000000, 61.000000)">
                            <g id="Release-with-confide-+-Get-warnings-leading-+-Imported-Layers-Copy">
                                <g id="illustration-release-with-confidence" transform="translate(179.000000, 0.000000)">
                                    <path d="M106.233375,10.3928241 L110.885386,17.0873611 C112.070192,18.7920833 112.696379,20.7911574 112.696379,22.8689352 L112.696379,26.5215741 L114.483801,24.4422222 C115.682749,23.0475926 117.42303,22.247963 119.25995,22.247963 C121.096085,22.247963 122.837152,23.0475926 124.035314,24.4422222 L127.123822,28.0350463 C127.554375,28.5356019 127.900074,29.0975463 128.153063,29.6972685 C128.458693,29.984537 128.650398,30.3930093 128.650398,30.8455556 C128.650398,30.9966667 128.629185,31.1422685 128.589115,31.280787 C128.629971,31.5688426 128.650398,31.8600463 128.650398,32.1543981 L128.650398,112.052037 L134.927982,115.415833 C135.438674,115.689722 135.758446,116.22412 135.758446,116.804167 L135.758446,126.298194 C135.758446,127.167083 135.054477,127.872269 134.187086,127.872269 L128.650398,127.872269 L128.650398,132.31037 C128.650398,133.180046 127.946429,133.884444 127.079038,133.884444 L111.440862,133.884444 C110.572686,133.884444 109.869502,133.180046 109.869502,132.31037 L109.869502,127.872269 L108.588843,127.872269 L108.588843,131.519398 C108.588843,132.389074 107.88566,133.093472 107.017483,133.093472 L81.4278831,133.093472 C80.5604923,133.093472 79.856523,132.389074 79.856523,131.519398 L79.856523,127.872269 L78.5766501,127.872269 L78.5766501,132.31037 C78.5766501,133.180046 77.8726808,133.884444 77.00529,133.884444 L61.3671137,133.884444 C60.4989373,133.884444 59.7957536,133.180046 59.7957536,132.31037 L59.7957536,127.872269 L54.2590661,127.872269 C53.3908896,127.872269 52.6877059,127.167083 52.6877059,126.298194 L52.6877059,116.804167 C52.6877059,116.22412 53.006692,115.689722 53.5181698,115.415833 L59.7957536,112.052037 L59.7957536,32.1543981 C59.7957536,31.8600463 59.8161813,31.5688426 59.856251,31.280787 C59.816967,31.1422685 59.7957536,30.9966667 59.7957536,30.8455556 C59.7957536,30.3930093 59.9866739,29.984537 60.2930891,29.6972685 C60.5460781,29.0975463 60.8917773,28.5356019 61.32233,28.0350463 L64.4108384,24.4422222 C65.6090005,23.0475926 67.3492818,22.247963 69.1862019,22.247963 C71.0231219,22.247963 72.7634033,23.0475926 73.9623511,24.4422222 L75.4339298,26.1540278 L75.4339298,22.8689352 C75.4339298,20.7919444 76.0601169,18.7928704 77.2449224,17.0873611 L81.8537217,10.454213 C35.6596616,16.5498148 0,56.1472222 0,104.085648 C0,128.850556 9.52008549,151.385 25.0883362,168.229167 L163.474882,168.229167 C179.043133,151.385 188.563218,128.850556 188.563218,104.085648 C188.563218,55.9811574 152.659996,16.276713 106.233375,10.3928241" id="Fill-1" fill="#DEEFF9"></path>
                                    <path d="M84.213119,124.953148 L104.232247,124.953148 L104.232247,137.060139 L84.213119,137.060139 L84.213119,124.953148 Z" id="Fill-2" fill="#1F5081"></path>
                                    <path d="M104.232247,138.634213 L84.213119,138.634213 C83.3457282,138.634213 82.6417589,137.929815 82.6417589,137.060926 L82.6417589,124.953148 C82.6417589,124.083472 83.3457282,123.379074 84.213119,123.379074 L104.232247,123.379074 C105.100424,123.379074 105.803608,124.083472 105.803608,124.953148 L105.803608,137.060926 C105.803608,137.929815 105.100424,138.634213 104.232247,138.634213 L104.232247,138.634213 Z M85.7852648,135.486065 L102.661673,135.486065 L102.661673,126.526435 L85.7852648,126.526435 L85.7852648,135.486065 Z" id="Fill-3" fill="#1F5081"></path>
                                    <path d="M111.125019,108.575694 L77.00529,108.575694 L77.00529,22.8689352 C77.00529,21.1225 77.5387668,19.4193519 78.5350091,17.9869444 L87.064352,5.71231481 C90.4584899,0.82875 97.6718187,0.82875 101.065957,5.71231481 L109.5953,17.9869444 C110.590756,19.4193519 111.125019,21.1225 111.125019,22.8689352 L111.125019,108.575694" id="Fill-4" fill="#FF4E4A"></path>
                                    <path d="M111.125019,110.149769 L77.00529,110.149769 C76.1371135,110.149769 75.4339298,109.44537 75.4339298,108.575694 L75.4339298,22.8689352 C75.4339298,20.7919444 76.0601169,18.7928704 77.2449224,17.0873611 L85.7742653,4.81273148 C87.6622545,2.09666667 90.7609768,0.47537037 94.0647615,0.47537037 L94.0655472,0.47537037 C97.3685462,0.476157407 100.467268,2.09666667 102.355258,4.81273148 L110.885386,17.0873611 C112.070192,18.7920833 112.696379,20.7911574 112.696379,22.8689352 L112.696379,108.575694 C112.696379,109.44537 111.992409,110.149769 111.125019,110.149769 M78.5766501,107.00162 L109.553659,107.00162 L109.553659,22.8689352 C109.553659,21.4373148 109.121534,20.06 108.305999,18.8857407 L99.77587,6.61189815 C98.4559274,4.71356481 96.3746609,3.62430556 94.0655472,3.62351852 C91.7556477,3.62351852 89.6735955,4.71199074 88.3544387,6.61189815 L79.8243101,18.8857407 C79.0079885,20.060787 78.5766501,21.4373148 78.5766501,22.8689352 L78.5766501,107.00162" id="Fill-5" fill="#1F5081"></path>
                                    <path d="M61.3671137,126.298194 L77.00529,126.298194 L77.00529,32.1543981 C77.00529,31.0187037 76.5983077,29.9215741 75.8597684,29.0613426 L72.7712601,25.4693056 C70.8840565,23.2726852 67.4883472,23.2726852 65.6011437,25.4693056 L62.513421,29.0613426 C61.774096,29.9215741 61.3671137,31.0187037 61.3671137,32.1543981 L61.3671137,126.298194" id="Fill-6" fill="#DCE1E5"></path>
                                    <path d="M78.5766501,127.872269 L59.7957536,127.872269 L59.7957536,32.1543981 C59.7957536,30.643287 60.3378728,29.1801852 61.32233,28.0350463 L64.4108384,24.4422222 C65.6090005,23.0475926 67.3492818,22.247963 69.1862019,22.247963 C71.0231219,22.247963 72.7634033,23.0475926 73.9623511,24.4422222 L77.0500738,28.0350463 C78.0345309,29.1793981 78.5766501,30.643287 78.5766501,32.1543981 L78.5766501,127.872269 M62.9384739,124.72412 L75.4339298,124.72412 L75.4339298,32.1543981 C75.4339298,31.3956944 75.1620845,30.662963 74.6686774,30.089213 L71.5809547,26.4956019 C70.9799095,25.7975 70.1070189,25.3961111 69.1862019,25.3961111 C68.2653848,25.3961111 67.3932799,25.7975 66.7922347,26.4956019 L63.7037263,30.089213 C63.2103192,30.662963 62.9384739,31.3956944 62.9384739,32.1543981 L62.9384739,124.72412" id="Fill-7" fill="#1F5081"></path>
                                    <path d="M75.4339298,32.4196296 L67.0939358,32.4196296 L67.0939358,108.142037 L75.4339298,103.673241 L75.4339298,32.4196296" id="Fill-8" fill="#C9D2DB"></path>
                                    <path d="M77.00529,32.4196296 L75.4339298,32.4196296 L75.4339298,103.673241 L77.00529,102.831111 L77.00529,32.4196296" id="Fill-9" fill="#1F5081"></path>
                                    <path d="M77.00529,32.4196296 L61.3671137,32.4196296 C60.4989373,32.4196296 59.7957536,31.7152315 59.7957536,30.8455556 C59.7957536,29.9766667 60.4989373,29.2714815 61.3671137,29.2714815 L77.00529,29.2714815 C77.8726808,29.2714815 78.5766501,29.9766667 78.5766501,30.8455556 C78.5766501,31.7152315 77.8726808,32.4196296 77.00529,32.4196296" id="Fill-10" fill="#1F5081"></path>
                                    <path d="M127.079038,126.298194 L111.440862,126.298194 L111.440862,32.1543981 C111.440862,31.0187037 111.847059,29.9215741 112.586384,29.0613426 L115.674106,25.4693056 C117.562096,23.2726852 120.957019,23.2726852 122.844223,25.4693056 L125.932731,29.0613426 C126.672056,29.9215741 127.079038,31.0187037 127.079038,32.1543981 L127.079038,126.298194" id="Fill-11" fill="#DCE1E5"></path>
                                    <path d="M128.650398,127.872269 L109.869502,127.872269 L109.869502,32.1543981 C109.869502,30.643287 110.411621,29.1793981 111.395293,28.0350463 L114.483801,24.4422222 C115.682749,23.0475926 117.42303,22.247963 119.25995,22.247963 C121.096085,22.247963 122.837152,23.0475926 124.035314,24.4422222 L127.123822,28.0350463 C128.108279,29.1801852 128.650398,30.643287 128.650398,32.1543981 L128.650398,127.872269 M113.012222,124.72412 L125.507678,124.72412 L125.507678,32.1543981 C125.507678,31.3956944 125.235833,30.662963 124.742426,30.089213 L121.653917,26.4956019 C121.052872,25.7975 120.180767,25.3961111 119.25995,25.3961111 C118.339133,25.3961111 117.466243,25.7975 116.865197,26.4956019 L113.777475,30.089213 C113.283282,30.662963 113.012222,31.3956944 113.012222,32.1543981 L113.012222,124.72412" id="Fill-12" fill="#1F5081"></path>
                                    <path d="M121.351431,32.4196296 L113.012222,32.4196296 L113.012222,103.673241 L121.351431,108.14125 L121.351431,32.4196296" id="Fill-13" fill="#C9D2DB"></path>
                                    <path d="M111.440862,32.4196296 L111.440862,102.831111 L113.012222,103.673241 L113.012222,32.4196296 L111.440862,32.4196296" id="Fill-14" fill="#1F5081"></path>
                                    <path d="M127.079038,32.4196296 L111.440862,32.4196296 C110.572686,32.4196296 109.869502,31.7152315 109.869502,30.8455556 C109.869502,29.9766667 110.572686,29.2714815 111.440862,29.2714815 L127.079038,29.2714815 C127.946429,29.2714815 128.650398,29.9766667 128.650398,30.8455556 C128.650398,31.7152315 127.946429,32.4196296 127.079038,32.4196296" id="Fill-15" fill="#1F5081"></path>
                                    <path d="M61.3671137,126.298194 L77.00529,126.298194 L77.00529,132.311157 L61.3671137,132.311157 L61.3671137,126.298194 Z" id="Fill-16" fill="#1F5081"></path>
                                    <path d="M77.00529,133.884444 L61.3671137,133.884444 C60.4989373,133.884444 59.7957536,133.180046 59.7957536,132.31037 L59.7957536,126.298194 C59.7957536,125.428519 60.4989373,124.72412 61.3671137,124.72412 L77.00529,124.72412 C77.8726808,124.72412 78.5766501,125.428519 78.5766501,126.298194 L78.5766501,132.31037 C78.5766501,133.180046 77.8726808,133.884444 77.00529,133.884444 L77.00529,133.884444 Z M62.9384739,130.736296 L75.4339298,130.736296 L75.4339298,127.871481 L62.9384739,127.871481 L62.9384739,130.736296 Z" id="Fill-17" fill="#1F5081"></path>
                                    <path d="M111.440862,126.298194 L127.079038,126.298194 L127.079038,132.311157 L111.440862,132.311157 L111.440862,126.298194 Z" id="Fill-18" fill="#1F5081"></path>
                                    <path d="M127.079038,133.884444 L111.440862,133.884444 C110.572686,133.884444 109.869502,133.180046 109.869502,132.31037 L109.869502,126.298194 C109.869502,125.428519 110.572686,124.72412 111.440862,124.72412 L127.079038,124.72412 C127.946429,124.72412 128.650398,125.428519 128.650398,126.298194 L128.650398,132.31037 C128.650398,133.180046 127.946429,133.884444 127.079038,133.884444 L127.079038,133.884444 Z M113.012222,130.736296 L125.507678,130.736296 L125.507678,127.871481 L113.012222,127.871481 L113.012222,130.736296 Z" id="Fill-19" fill="#1F5081"></path>
                                    <path d="M128.026568,138.32412 L110.492546,138.32412 L111.440862,132.311157 L127.079038,132.311157 L128.026568,138.32412" id="Fill-20" fill="#F6F6F6"></path>
                                    <path d="M128.026568,139.897407 L110.492546,139.897407 C110.032923,139.897407 109.596871,139.695926 109.298312,139.345694 C108.999754,138.995463 108.868545,138.532685 108.940828,138.077778 L109.888358,132.065602 C110.009353,131.299815 110.667753,130.736296 111.440862,130.736296 L127.079038,130.736296 C127.852148,130.736296 128.510547,131.299815 128.630756,132.065602 L129.578287,138.077778 C129.650569,138.532685 129.519361,138.995463 129.220802,139.345694 C128.922244,139.695926 128.486191,139.897407 128.026568,139.897407 L128.026568,139.897407 Z M112.331823,136.749259 L126.187291,136.749259 L125.736311,133.884444 L112.783589,133.884444 L112.331823,136.749259 L112.331823,136.749259 Z" id="Fill-21" fill="#1F5081"></path>
                                    <path d="M81.4278831,124.873657 L107.017483,124.873657 L107.017483,131.519398 L81.4278831,131.519398 L81.4278831,124.873657 Z" id="Fill-22" fill="#F6F6F6"></path>
                                    <path d="M107.017483,133.093472 L81.4278831,133.093472 C80.5604923,133.093472 79.856523,132.389074 79.856523,131.519398 L79.856523,124.873657 C79.856523,124.004769 80.5604923,123.299583 81.4278831,123.299583 L107.017483,123.299583 C107.88566,123.299583 108.588843,124.004769 108.588843,124.873657 L108.588843,131.519398 C108.588843,132.389074 107.88566,133.093472 107.017483,133.093472 L107.017483,133.093472 Z M82.9992433,129.945324 L105.446123,129.945324 L105.446123,126.447731 L82.9992433,126.447731 L82.9992433,129.945324 Z" id="Fill-23" fill="#1F5081"></path>
                                    <path d="M109.496304,21.9748611 L78.6332191,21.9748611 C78.5955065,22.269213 78.5766501,22.5675 78.5766501,22.8689352 L78.5766501,101.988981 L79.856523,101.303472 L79.856523,40.6166204 C79.856523,38.3688426 80.6783443,36.2052778 82.1695651,34.5241667 L87.2937706,28.7488889 C89.01441,26.8096296 91.4877308,25.6888889 94.0781181,25.6723611 L94.0844035,25.6723611 C96.6755764,25.6723611 99.1575398,26.7490278 100.900964,28.667037 L106.201947,34.4950463 C107.741095,36.1863889 108.588843,38.3798611 108.588843,40.6701389 L108.588843,101.303472 L109.553659,101.819769 L109.553659,22.8689352 C109.553659,22.5675 109.534017,22.269213 109.496304,21.9748611" id="Fill-24" fill="#E84E50"></path>
                                    <path d="M78.5766501,30.8455556 C78.5766501,30.9966667 78.5554368,31.1422685 78.5161528,31.280787 C78.5562225,31.5688426 78.5766501,31.8600463 78.5766501,32.1543981 L78.5766501,30.8455556 M78.6332191,21.9748611 L77.00529,21.9748611 L77.00529,27.9823148 L77.0500738,28.0350463 C77.4806264,28.5356019 77.8271114,29.0975463 78.0801003,29.6972685 C78.3857299,29.984537 78.5766501,30.3930093 78.5766501,30.8455556 L78.5766501,22.8689352 C78.5766501,22.5675 78.5955065,22.269213 78.6332191,21.9748611 M111.125019,21.9748611 L109.496304,21.9748611 C109.534017,22.269213 109.553659,22.5675 109.553659,22.8689352 L109.553659,101.819769 L109.869502,101.988981 L109.869502,32.1543981 C109.869502,31.8600463 109.88993,31.5688426 109.929999,31.280787 C109.890715,31.1422685 109.869502,30.9966667 109.869502,30.8455556 C109.869502,30.3930093 110.060422,29.984537 110.366052,29.6972685 C110.564043,29.2289815 110.817818,28.7835185 111.125019,28.3726852 L111.125019,21.9748611" id="Fill-25" fill="#1F5081"></path>
                                    <path d="M78.5161528,31.280787 C78.3275896,31.93875 77.7226159,32.4196296 77.00529,32.4196296 L77.00529,102.831111 L78.5766501,101.988981 L78.5766501,32.1543981 C78.5766501,31.8600463 78.5562225,31.5688426 78.5161528,31.280787 M77.00529,27.9823148 L77.00529,29.2714815 C77.4209148,29.2714815 77.7988269,29.4336111 78.0801003,29.6972685 C77.8271114,29.0975463 77.4806264,28.5356019 77.0500738,28.0350463 L77.00529,27.9823148" id="Fill-26" fill="#1F5081"></path>
                                    <path d="M77.00529,29.2714815 L77.00529,32.4196296 C77.7226159,32.4196296 78.3275896,31.93875 78.5161528,31.280787 C78.5554368,31.1422685 78.5766501,30.9966667 78.5766501,30.8455556 C78.5766501,30.3930093 78.3857299,29.984537 78.0801003,29.6972685 C77.7988269,29.4336111 77.4209148,29.2714815 77.00529,29.2714815" id="Fill-27" fill="#1F5081"></path>
                                    <path d="M109.929999,31.280787 C109.88993,31.5688426 109.869502,31.8600463 109.869502,32.1543981 L109.869502,101.988981 L111.125019,102.661898 L111.125019,32.3881481 C110.550687,32.2708796 110.090278,31.8395833 109.929999,31.280787 M111.125019,28.3726852 C110.817818,28.7835185 110.564043,29.2289815 110.366052,29.6972685 C110.574257,29.5020833 110.835103,29.3627778 111.125019,29.30375 L111.125019,28.3726852" id="Fill-28" fill="#1F5081"></path>
                                    <path d="M111.125019,29.30375 C110.835103,29.3627778 110.574257,29.5020833 110.366052,29.6972685 C110.060422,29.984537 109.869502,30.3930093 109.869502,30.8455556 C109.869502,30.9966667 109.890715,31.1422685 109.929999,31.280787 C110.090278,31.8395833 110.550687,32.2708796 111.125019,32.3881481 L111.125019,29.30375" id="Fill-29" fill="#1F5081"></path>
                                    <path d="M107.017483,126.298194 L81.4278831,126.298194 L81.4278831,40.6166204 C81.4278831,38.7560648 82.1098534,36.9608333 83.3433712,35.5709259 L88.4683623,29.7956481 C91.4594464,26.4247685 96.7070036,26.3925 99.7397287,29.7263889 L105.040712,35.5543981 C106.312728,36.95375 107.017483,38.7773148 107.017483,40.6701389 L107.017483,126.298194" id="Fill-30" fill="#F6F6F6"></path>
                                    <path d="M107.017483,127.872269 L81.4278831,127.872269 C80.5604923,127.872269 79.856523,127.167083 79.856523,126.298194 L79.856523,40.6166204 C79.856523,38.3688426 80.6783443,36.2052778 82.1695651,34.5241667 L87.2937706,28.7488889 C89.01441,26.8096296 91.4877308,25.6888889 94.0781181,25.6723611 C96.671648,25.670787 99.1567541,26.7474537 100.900964,28.667037 L106.201947,34.4950463 C107.741095,36.1863889 108.588843,38.3798611 108.588843,40.6701389 L108.588843,126.298194 C108.588843,127.167083 107.88566,127.872269 107.017483,127.872269 M82.9992433,124.72412 L105.446123,124.72412 L105.446123,40.6701389 C105.446123,39.1661111 104.889862,37.7266204 103.878691,36.6161111 L98.5777079,30.7873148 C97.4321863,29.5272685 95.7744013,28.8378241 94.0977601,28.8205093 C92.395977,28.8315278 90.772762,29.5681944 89.6421683,30.8416204 L84.5179629,36.6161111 C83.5390055,37.719537 82.9992433,39.1409259 82.9992433,40.6166204 L82.9992433,124.72412" id="Fill-31" fill="#1F5081"></path>
                                    <path d="M85.92983,42.5550926 L102.515536,42.5550926 L102.515536,48.4885648 L85.92983,48.4885648 L85.92983,42.5550926 Z" id="Fill-32" fill="#1F5081"></path>
                                    <path d="M85.92983,58.1950926 L102.515536,58.1950926 L102.515536,61.3432407 L85.92983,61.3432407 L85.92983,58.1950926 Z" id="Fill-33" fill="#DFE4E9"></path>
                                    <path d="M85.92983,67.4656019 L102.515536,67.4656019 L102.515536,70.61375 L85.92983,70.61375 L85.92983,67.4656019 Z" id="Fill-34" fill="#DFE4E9"></path>
                                    <path d="M88.4675766,29.7956481 L84.8793757,33.8394444 L103.480352,33.8394444 L99.7397287,29.7263889 C96.7070036,26.3925 91.4594464,26.4247685 88.4675766,29.7956481" id="Fill-35" fill="#1F5081"></path>
                                    <path d="M81.4278831,102.246343 L54.2590661,116.804167 L54.2590661,126.298194 L81.4278831,126.298194 L81.4278831,102.246343" id="Fill-36" fill="#F6F6F6"></path>
                                    <path d="M81.4278831,127.872269 L54.2590661,127.872269 C53.3908896,127.872269 52.6877059,127.167083 52.6877059,126.298194 L52.6877059,116.804167 C52.6877059,116.22412 53.006692,115.689722 53.5181698,115.415833 L80.6869868,100.858009 C81.1741085,100.5975 81.7625829,100.611667 82.2355623,100.895787 C82.7093273,101.180694 82.9992433,101.693056 82.9992433,102.246343 L82.9992433,126.298194 C82.9992433,127.167083 82.2960596,127.872269 81.4278831,127.872269 M55.8304262,124.72412 L79.856523,124.72412 L79.856523,104.873472 L55.8304262,117.747037 L55.8304262,124.72412" id="Fill-37" fill="#1F5081"></path>
                                    <path d="M107.017483,102.246343 L134.187086,116.804167 L134.187086,126.298194 L107.017483,126.298194 L107.017483,102.246343" id="Fill-38" fill="#F6F6F6"></path>
                                    <path d="M134.187086,127.872269 L107.017483,127.872269 C106.150092,127.872269 105.446123,127.167083 105.446123,126.298194 L105.446123,102.246343 C105.446123,101.693056 105.736825,101.180694 106.21059,100.895787 C106.684355,100.611667 107.272044,100.595926 107.759165,100.858009 L134.927982,115.415833 C135.438674,115.689722 135.758446,116.22412 135.758446,116.804167 L135.758446,126.298194 C135.758446,127.167083 135.054477,127.872269 134.187086,127.872269 M108.588843,124.72412 L132.615726,124.72412 L132.615726,117.747037 L108.588843,104.873472 L108.588843,124.72412" id="Fill-39" fill="#1F5081"></path>
                                    <path d="M79.856523,104.873472 L73.2929516,108.390741 L73.2929516,124.72412 L79.856523,124.72412 L79.856523,104.873472" id="Fill-40" fill="#DFE4E9"></path>
                                    <path d="M81.4278831,102.246343 L73.2929516,106.605741 L73.2929516,108.390741 L79.856523,104.873472 L79.856523,124.72412 L73.2929516,124.72412 L73.2929516,126.298194 L81.4278831,126.298194 L81.4278831,102.246343" id="Fill-41" fill="#1F5081"></path>
                                    <path d="M108.588843,104.873472 L108.588843,124.72412 L115.508328,124.72412 L115.508328,108.581204 L108.588843,104.873472" id="Fill-42" fill="#DFE4E9"></path>
                                    <path d="M107.373396,102.436806 L107.373396,126.298194 L115.508328,126.298194 L115.508328,124.72412 L108.588843,124.72412 L108.588843,104.873472 L115.508328,108.581204 L115.508328,106.795417 L107.373396,102.436806" id="Fill-43" fill="#1F5081"></path>
                                    <path d="M54.2590661,121.867176 L81.4286688,121.867176 L81.4286688,126.297407 L54.2590661,126.297407 L54.2590661,121.867176 Z" id="Fill-44" fill="#1F5081"></path>
                                    <path d="M107.767022,121.867176 L134.936625,121.867176 L134.936625,126.297407 L107.767022,126.297407 L107.767022,121.867176 Z" id="Fill-45" fill="#1F5081"></path>
                                    <path d="M91.8224306,102.003935 L96.4650141,102.003935 L96.4650141,141.483287 L91.8224306,141.483287 L91.8224306,102.003935 Z" id="Fill-46" fill="#F6F6F6"></path>
                                    <path d="M96.4650141,143.057361 L91.8224306,143.057361 C90.9550398,143.057361 90.2510704,142.352176 90.2510704,141.483287 L90.2510704,102.003935 C90.2510704,101.135046 90.9550398,100.430648 91.8224306,100.430648 L96.4650141,100.430648 C97.3331906,100.430648 98.0363743,101.135046 98.0363743,102.003935 L98.0363743,141.483287 C98.0363743,142.352176 97.3331906,143.057361 96.4650141,143.057361 L96.4650141,143.057361 Z M93.3937907,139.909213 L94.893654,139.909213 L94.893654,103.578796 L93.3937907,103.578796 L93.3937907,139.909213 Z" id="Fill-47" fill="#1F5081"></path>
                                    <path d="M77.00529,132.311157 L61.3671137,132.311157 L60.4643673,137.630741 L77.9080364,137.630741 L77.00529,132.311157" id="Fill-48" fill="#F6F6F6"></path>
                                    <path d="M77.9080364,139.204028 L60.4643673,139.204028 C60.0016018,139.204028 59.5624066,138.999398 59.2638482,138.645231 C58.9652898,138.291065 58.8380096,137.822778 58.9150062,137.366296 L59.8177526,132.046713 C59.9466042,131.289583 60.6010757,130.736296 61.3671137,130.736296 L77.00529,130.736296 C77.7713281,130.736296 78.4257996,131.289583 78.5538654,132.046713 L79.4573975,137.366296 C79.5351798,137.822778 79.407114,138.291065 79.1093412,138.645231 C78.8099971,138.999398 78.370802,139.204028 77.9080364,139.204028 L77.9080364,139.204028 Z M62.3256434,136.05588 L76.047546,136.05588 L75.6782763,133.884444 L62.6933417,133.884444 L62.3256434,136.05588 L62.3256434,136.05588 Z" id="Fill-49" fill="#1F5081"></path>
                                    <path d="M60.4643673,137.630741 L57.2768633,156.407083 L81.0955405,156.407083 L77.9080364,137.630741 L60.4643673,137.630741" id="Fill-50" fill="#FFBD17"></path>
                                    <path d="M81.0955405,157.981944 L57.2768633,157.981944 C56.8140977,157.981944 56.3749025,157.777315 56.0763441,157.423148 C55.7777857,157.068194 55.6505055,156.600694 55.7275022,156.144213 L58.9150062,137.366296 C59.0438578,136.609167 59.6983293,136.05588 60.4643673,136.05588 L77.9080364,136.05588 C78.6740745,136.05588 79.328546,136.609167 79.4573975,137.366296 L82.6449016,156.144213 C82.7226839,156.600694 82.5946181,157.068194 82.2968453,157.423148 C81.9975012,157.777315 81.558306,157.981944 81.0955405,157.981944 L81.0955405,157.981944 Z M59.1381394,154.833796 L79.23505,154.833796 L76.5818084,139.204028 L61.791381,139.204028 L59.1381394,154.833796 L59.1381394,154.833796 Z" id="Fill-51" fill="#1F5081"></path>
                                    <path d="M107.64917,162.375185 L110.492546,138.32412 L128.026568,138.32412 L130.869945,162.375185" id="Fill-52" fill="#FFBD17"></path>
                                    <path d="M129.309584,162.560139 L126.629629,139.897407 L111.889485,139.897407 L109.210316,162.560139 L106.088809,162.189444 L108.932186,138.13838 C109.026467,137.345833 109.696652,136.749259 110.492546,136.749259 L128.026568,136.749259 C128.822462,136.749259 129.492648,137.345833 129.586929,138.13838 L132.430305,162.189444 L129.309584,162.560139" id="Fill-53" fill="#1F5081"></path>
                                    <path d="M168.377526,168.661343 L22.1318221,168.661343 C21.5983453,168.661343 21.1010098,168.399243 20.8118795,167.966208 C20.5227493,167.532413 20.4803226,166.986182 20.700313,166.515921 C23.6442562,160.210328 30.1591154,156.136003 37.2970189,156.136003 C39.6737011,156.136003 42.0346698,156.58955 44.2212174,157.456379 C47.0040963,149.838007 54.4515577,144.661343 62.9416166,144.661343 C70.0198084,144.661343 76.4278151,148.224383 80.0073736,154.053638 C82.4304109,153.081969 84.9948707,152.590436 87.6520407,152.590436 C91.7902177,152.590436 95.8231135,153.834841 99.1866099,156.124607 C103.239933,150.439697 109.978711,146.97314 117.175541,146.97314 C123.683329,146.97314 129.87056,149.814456 134.003237,154.638615 C136.308422,153.428397 138.883881,152.794798 141.532409,152.794798 C147.289087,152.794798 152.495789,155.77666 155.282596,160.529406 C156.784816,159.671694 158.500742,159.212069 160.268522,159.212069 C164.937818,159.212069 168.995856,162.421084 169.917459,166.841077 C170.010955,167.287787 169.891531,167.75121 169.593759,168.103715 C169.2952,168.456221 168.848148,168.661343 168.377526,168.661343 L168.377526,168.661343 Z M24.7999916,165.622502 L166.149337,165.622502 C164.996744,163.593317 162.760699,162.250909 160.268522,162.250909 C158.600523,162.250909 156.998521,162.854879 155.757147,163.950381 C155.378449,164.284653 154.856757,164.419881 154.355494,164.312003 C153.855801,164.204124 153.440962,163.867572 153.245328,163.409467 C151.276413,158.807144 146.678614,155.833638 141.532409,155.833638 C139.014304,155.833638 136.579482,156.547766 134.491144,157.90005 C133.78796,158.355116 132.838073,158.190259 132.342309,157.526272 C128.831105,152.821388 123.160852,150.01198 117.175541,150.01198 C110.501974,150.01198 104.286459,153.496011 100.955961,159.103431 C100.7234,159.494681 100.323489,159.766657 99.8630805,159.843388 C99.4058147,159.922398 98.9328352,159.797806 98.5769222,159.506077 C95.5276978,157.006631 91.6480096,155.629276 87.6520407,155.629276 C84.9791571,155.629276 82.41784,156.219571 80.0395864,157.381928 C79.664817,157.563498 79.2311216,157.593887 78.8351389,157.467775 C78.4375848,157.340144 78.1099562,157.064369 77.9229643,156.701227 C75.0693743,151.149266 69.32841,147.700183 62.9416166,147.700183 C55.2584511,147.700183 48.588813,152.73858 46.7236085,159.952786 C46.6057565,160.407853 46.2765565,160.784669 45.8326473,160.973837 C45.3879523,161.162245 44.8788317,161.142492 44.4514217,160.920657 C42.2672311,159.778053 39.7931245,159.174843 37.2970189,159.174843 C32.2458817,159.174843 27.5718709,161.641622 24.7999916,165.622502 L24.7999916,165.622502 Z" id="Fill-55" fill="#1F5081"></path>
                                    <path d="M168.377526,168.950556 C167.614631,165.162546 164.274705,162.309537 160.268522,162.309537 C158.119687,162.309537 156.168057,163.136713 154.697264,164.482546 C152.559429,159.306204 147.472936,155.661435 141.532409,155.661435 C138.602608,155.661435 135.881012,156.549213 133.616682,158.068194 C129.936557,152.95875 123.945746,149.63037 117.175541,149.63037 C109.651083,149.63037 103.089083,153.741065 99.5928065,159.839028 C96.3723039,157.103287 92.2058424,155.449722 87.651255,155.449722 C84.6570283,155.449722 81.8317227,156.1675 79.3301173,157.433843 C76.3343192,151.395694 70.1305893,147.235417 62.9416166,147.235417 C54.3667043,147.235417 47.1895168,153.148426 45.1986034,161.120324 C42.8478487,159.846898 40.1568944,159.123611 37.2970189,159.123611 C30.543313,159.123611 24.7418513,163.160324 22.1318221,168.950556 L168.377526,168.950556" id="Fill-54" fill="#F6F6F6"></path>
                                    <path d="M12,167 L177,167 L177,170 L12,170 L12,167 Z" id="Fill-56" fill="#1F5081"></path>
                                </g>
                            </g>
                        </g>
                    </g>
                </g>
            </g>
        </g>
    </g>
</svg>