<?xml version="1.0" encoding="UTF-8" standalone="no"?>
<svg width="108px" height="32px" viewBox="0 0 108 32" version="1.1" xmlns="http://www.w3.org/2000/svg" xmlns:xlink="http://www.w3.org/1999/xlink" xmlns:sketch="http://www.bohemiancoding.com/sketch/ns">
    <!-- Generator: Sketch 3.4 (15588) - http://www.bohemiancoding.com/sketch -->
    <title>orange arrow right</title>
    <desc>Created with Sketch.</desc>
    <defs></defs>
    <g id="Flow-1-Bitbucket-adds-JIRA" stroke="none" stroke-width="1" fill="none" fill-rule="evenodd" sketch:type="MSPage">
        <g id="Easy-Connect-1.6.3-Alt-Error" sketch:type="MSArtboardGroup" transform="translate(-587.000000, -235.000000)">
            <g id="diagram-copy-2" sketch:type="MSLayerGroup" transform="translate(548.000000, 237.000000)">
                <g id="orange-arrow-right" transform="translate(41.000000, 0.000000)" sketch:type="MSShapeGroup">
                    <path d="M0.882,26.777 C0.882,26.777 14.779,0.997 51.049,0.827 C82.865,0.677 100.477,26.966 100.477,26.966" id="Stroke-1" stroke="#EB8B3C" stroke-width="4" stroke-linecap="round"></path>
                    <path d="M83.702,25.441 L84.434,22.323 L99.79,25.947 L102.284,10.366 L105.446,10.875 L102.406,29.851 L83.702,25.441" id="Fill-2" fill="#EB8B3C"></path>
                </g>
            </g>
        </g>
    </g>
</svg>