{
  "jira.dvcsconnector.adduser.bitbucketinvitation": [],
  "jira.dvcsconnector.config.add.bitbucket.ended": [
    {
      "source": [
        "unknown",
        "devtools"
      ]
    }
  ],
  "jira.dvcsconnector.config.add.github.ended": [
    {
      "source": [
        "unknown",
        "devtools"
      ]
    }
  ],
  "jira.dvcsconnector.config.add.githubenterprise.ended": [
    {
      "source": [
        "unknown",
        "devtools"
      ]
    }
  ],
  "jira.dvcsconnector.config.add.bitbucket.started": [
    {
      "source": [
        "unknown",
        "devtools"
      ]
    }
  ],
  "jira.dvcsconnector.config.add.github.started": [
    {
      "source": [
        "unknown",
        "devtools"
      ]
    }
  ],
  "jira.dvcsconnector.config.add.githubenterprise.started": [
    {
      "source": [
        "unknown",
        "devtools"
      ]
    }
  ],
  "jira.dvcsconnector.config.add.bitbucket.ended.succeeded": [
    "organizationId",
    "smartCommitsEnabled",
    "autoLinkEnabled",
    {
      "source": [
        "unknown",
        "devtools"
      ]
    },
    {
      "reason": [
        "",
        "oauth.generic",
        "oauth.sourcecontrol",
        "oauth.response",
        "oauth.token",
        "oauth.unauth",
        "validation"
      ]
    },
    {
      "authType": [
        "",
        "unknown",
        "2LO",
        "3LO",
        "basic",
        "none",
        "jwt"
      ]
    }
  ],
  "jira.dvcsconnector.config.add.github.ended.succeeded": [
    "organizationId",
    "smartCommitsEnabled",
    "autoLinkEnabled",
    {
      "source": [
        "unknown",
        "devtools"
      ]
    },
    {
      "reason": [
        "",
        "oauth.generic",
        "oauth.sourcecontrol",
        "oauth.response",
        "oauth.token",
        "oauth.unauth",
        "validation"
      ]
    },
    {
      "authType": [
        "",
        "unknown",
        "2LO",
        "3LO",
        "basic",
        "none",
        "jwt"
      ]
    }
  ],
  "jira.dvcsconnector.config.add.githubenterprise.ended.succeeded": [
    "organizationId",
    "smartCommitsEnabled",
    "autoLinkEnabled",
    {
      "source": [
        "unknown",
        "devtools"
      ]
    },
    {
      "reason": [
        "",
        "oauth.generic",
        "oauth.sourcecontrol",
        "oauth.response",
        "oauth.token",
        "oauth.unauth",
        "validation"
      ]
    },
    {
      "authType": [
        "",
        "unknown",
        "2LO",
        "3LO",
        "basic",
        "none",
        "jwt"
      ]
    }
  ],
  "jira.dvcsconnector.config.add.bitbucket.ended.failed": [
    {
      "source": [
        "unknown",
        "devtools"
      ]
    },
    {
      "reason": [
        "",
        "oauth.generic",
        "oauth.sourcecontrol",
        "oauth.response",
        "oauth.token",
        "oauth.unauth",
        "validation"
      ]
    }
  ],
  "jira.dvcsconnector.config.add.github.ended.failed": [
    {
      "source": [
        "unknown",
        "devtools"
      ]
    },
    {
      "reason": [
        "",
        "oauth.generic",
        "oauth.sourcecontrol",
        "oauth.response",
        "oauth.token",
        "oauth.unauth",
        "validation"
      ]
    }
  ],
  "jira.dvcsconnector.config.add.githubenterprise.ended.failed": [
    {
      "source": [
        "unknown",
        "devtools"
      ]
    },
    {
      "reason": [
        "",
        "oauth.generic",
        "oauth.sourcecontrol",
        "oauth.response",
        "oauth.token",
        "oauth.unauth",
        "validation"
      ]
    }
  ],
  "jira.dvcsconnector.config.add.bitbucket.started.succeeded": [
    {
      "source": [
        "unknown",
        "devtools"
      ]
    },
    {
      "reason": [
        "",
        "oauth.generic",
        "oauth.sourcecontrol",
        "oauth.response",
        "oauth.token",
        "oauth.unauth",
        "validation"
      ]
    }
  ],
  "jira.dvcsconnector.config.add.github.started.succeeded": [
    {
      "source": [
        "unknown",
        "devtools"
      ]
    },
    {
      "reason": [
        "",
        "oauth.generic",
        "oauth.sourcecontrol",
        "oauth.response",
        "oauth.token",
        "oauth.unauth",
        "validation"
      ]
    }
  ],
  "jira.dvcsconnector.config.add.githubenterprise.started.succeeded": [
    {
      "source": [
        "unknown",
        "devtools"
      ]
    },
    {
      "reason": [
        "",
        "oauth.generic",
        "oauth.sourcecontrol",
        "oauth.response",
        "oauth.token",
        "oauth.unauth",
        "validation"
      ]
    }
  ],
  "jira.dvcsconnector.org.repos.sync": [
    "numNewRepos",
    "totalNumRepos",
    "organizationId",
    {
      "dvcsType": [
        "",
        "bitbucket",
        "github",
        "githubenterprise"
      ]
    },
    {
      "authType": [
        "",
        "unknown",
        "2LO",
        "3LO",
        "basic",
        "none",
        "jwt"
      ]
    }
  ],
  "jira.dvcsconnector.sync.start": [
    "soft",
    "commits",
    "pullrequests",
    "webhook",
    "syncId",
    "repoId",
    "organizationId",
    {
      "dvcsType": [
        "",
        "bitbucket",
        "github",
        "githubenterprise"
      ]
    },
    {
      "authType": [
        "",
        "unknown",
        "2LO",
        "3LO",
        "basic",
        "none",
        "jwt"
      ]
    }
  ],
  "jira.dvcsconnector.sync.end": [
    "syncId",
    "finishedOn",
    "tookMillis"
  ],
  "jira.dvcsconnector.bitbucketinvitation.adduser": [],
  "jira.dvcsconnector.bitbucketinvitation.sent": [],
  "jira.dvcsconnector.bitbucketinvitation.group.updated": [
    "groupsEnabled"
  ],
  "jira.dvcsconnector.config.shown": [
    {
      "source": [
        "unknown",
        "devtools"
      ]
    }
  ],
  "jira.dvcsconnector.config.add.started": [
    {
      "source": [
        "unknown",
        "devtools"
      ]
    }
  ],
  "jira.dvcsconnector.config.add.cancelled": [
    {
      "source": [
        "unknown",
        "devtools"
      ]
    }
  ],
  "jira.dvcsconnector.config.add.bitbucket.flow.started": [
    {
      "source": [
        "unknown",
        "devtools"
      ]
    }
  ],
  "jira.dvcsconnector.smartcommit.success": [
    "transition",
    "time",
    "comment"
  ],
  "jira.dvcsconnector.smartcommit.transition.failed": [
    {
      "failureReason": [
        "ambiguousMatch",
        "noMatch",
        "issueHasNotTransitions",
        "noCommandProvided"
      ]
    }
  ],
  "jira.dvcsconnector.smartcommit.worklog.failed": [],
  "jira.dvcsconnector.smartcommit.comment.failed": [],
  "jira.dvcsconnector.smartcommit.failed": [
    {
      "failureReason": [
        "noEmail",
        "cantMapEmailToJiraUser",
        "foundMultipleUserWithEmail"
      ]
    }
  ],
  "jira.dvcsconnector.smartcommit.received": [
    "transition",
    "time",
    "comment"
  ],
  "jira.dvcsconnector.smartcommit.transition.to.undefined": [],
  "jira.dvcsconnector.smartcommit.transition.to.new": [],
  "jira.dvcsconnector.smartcommit.transition.to.indeterminate": [],
  "jira.dvcsconnector.smartcommit.transition.to.done": [],
  "jira.dvcsconnector.smartcommit.merge": [],
  "jira.dvcsconnector.smartcommit.config.default.enabled": [
    "organizationID"
  ],
  "jira.dvcsconnector.smartcommit.config.default.disabled": [
    "organizationID"
  ],
  "jira.dvcsconnector.smartcommit.repo.enabled": [
    "repoID"
  ],
  "jira.dvcsconnector.smartcommit.repo.disabled": [
    "repoID"
  ],
  "jira.dvcsconnector.bitbucket.smartcommit.default.enabled": [],
  "jira.dvcsconnector.github.smartcommit.default.enabled": [],
  "jira.dvcsconnector.githubenterprise.smartcommit.default.enabled": [],
  "jira.dvcsconnector.connect.organization.added": [
    "organizationId",
    "principalId"
  ],
  "jira.dvcsconnector.connect.organization.updated": [
    "organizationId",
    "principalId"
  ],
  "jira.dvcsconnector.connect.organization.migrated": [
    "organizationId",
    "principalId"
  ],
  "jira.dvcsconnector.connect.organization.removed": [
    "organizationId",
    "principalId"
  ],
  "jira.dvcsconnector.connect.organization.pending.removed": [
    "organizationId"
  ],
  "jira.dvcsconnector.organization.approved": [
    "organizationId",
    "principalId",
    {
      "organizationApprovalLocation": [
        "DURING_INSTALLATION_FLOW",
        "ON_ADMIN_SCREEN",
        "UNKNOWN"
      ]
    },
    {
      "credentialType": [
        "PRINCIPAL_ID",
        "TWO_LEGGED_OAUTH",
        "THREE_LEGGED_OAUTH",
        "BASIC",
        "UNAUTHENTICATED"
      ]
    }
  ],
  "jira.dvcsconnector.organization.approval.failed": [
    "organizationId",
    {
      "organizationApprovalLocation": [
        "DURING_INSTALLATION_FLOW",
        "ON_ADMIN_SCREEN",
        "UNKNOWN"
      ]
    },
    {
      "reason": [
        "ORGANIZATION_ALREADY_REMOVED",
        "UNKNOWN_ERROR"
      ]
    },
    {
      "credentialType": [
        "PRINCIPAL_ID",
        "TWO_LEGGED_OAUTH",
        "THREE_LEGGED_OAUTH",
        "BASIC",
        "UNAUTHENTICATED"
      ]
    }
  ],
  "jira.dvcsconnector.organization.initial.config.completed": [
    "organizationId",
    "autoLinkRepos",
    "smartCommits"
  ],
  "jira.dvcsconnector.organization.default.settings.changed": [
    "organizationId",
    "autoLinkRepos",
    "smartCommits"
  ],
  "jira.dvcsconnector.connect.organization.principal.navigation": [
    "organizationId",
    "principalId"
  ],
  "jira.dvcsconnector.featurediscovery.started": [],
  "jira.dvcsconnector.featurediscovery.completed": [],
  "jira.dvcsconnector.featurediscovery.aborted": [
    "pageIndex"
  ]
}